{
  "images" : [
    {
      "idiom" : "universal",
      "filename" : "4216252ddd51ef6b5bb6b49d0780be15.jpg",
      "scale" : "1x"
    },
    {
      "idiom" : "universal",
      "filename" : "4216252ddd51ef6b5bb6b49d0780be15-1.jpg",
      "scale" : "2x"
    },
    {
      "idiom" : "universal",
      "filename" : "4216252ddd51ef6b5bb6b49d0780be15-2.jpg",
      "scale" : "3x"
    }
  ],
  "info" : {
    "version" : 1,
    "author" : "xcode"
  }
}